A [dead]
B [dead]
C Delhi
D [dead]
E Beijing
F Osaka
G [dead]
H [dead]
I [dead]
J Tianjin
K [dead]
L [dead]
M [dead]
N Nagoya
O Bangkok
P Chengdu
Q [dead]
R [dead]
S [dead]
T [dead]
U [dead]
V Shenyang
W [dead]
X Haerbin
Y [dead]
Z [dead]
