A [dead]
B [dead]
C [dead]
D BuenosAires
E Salvador
F [dead]
G [dead]
H Maracaibo
I Cali
J [dead]
K [dead]
L [dead]
M Umma
N Babylon
O [dead]
P [dead]
Q [dead]
R [dead]
S Estakhr
T Persepolis
U Tabriz
V [dead]
